<svg width="40" height="40" viewBox="0 0 40 40" fill="none" xmlns="http://www.w3.org/2000/svg">
<path d="M34.1406 0H5.85938C2.62878 0 0 2.62878 0 5.85938V34.1406C0 37.3712 2.62878 40 5.85938 40H17.6562V25.8594H12.9688V18.8281H17.6562V14.0625C17.6562 10.1852 20.8102 7.03125 24.6875 7.03125H31.7969V14.0625H24.6875V18.8281H31.7969L30.625 25.8594H24.6875V40H34.1406C37.3712 40 40 37.3712 40 34.1406V5.85938C40 2.62878 37.3712 0 34.1406 0Z" fill="white"/>
</svg>
