<svg width="40" height="35" viewBox="0 0 40 35" fill="none" xmlns="http://www.w3.org/2000/svg">
<path fill-rule="evenodd" clip-rule="evenodd" d="M0 0.000267029V17.1432C0 26.5964 7.68975 34.2861 17.1429 34.2861V28.5718C10.8413 28.5718 5.71434 23.4448 5.71434 17.1432H17.1429V0.000267029H0ZM39.9999 34.2861V28.5718C33.6983 28.5718 28.5713 23.4448 28.5713 17.1432H39.9999V0.000267029H22.8569V17.1432C22.8569 26.5964 30.5467 34.2861 39.9999 34.2861Z" fill="#86CBED"/>
</svg>
